…
DuckDB creates a custom database `off.db` that compacts the data in a columnar storage type as the Parquet format does, which makes column queries fast. Additionally, data stored in the database takes less memory than there file format equivalent (CSV, JSON, etc ...).

Let's have a look at the Open Food Facts data using the `DESCRIBE` command:

```sql
.timer on --Activate the timer
DESCRIBE (SELECT * FROM read_ndjson('openfoodfacts-products.jsonl.gz', ignore_errors=True)) --ignore_errors is necessary since some elements in the data are in the wrong format
```

> Note: `--` is used to comment SQL code 

```
┌───────────────────────────────────────────┬─────────────┬─────────┬─────────┬─────────┬─────────┐
│                column_name                │ column_type │  null   │   key   │ default │  extra  │
│                  varchar                  │   varchar   │ varchar │ varchar │ varchar │ varchar │
├───────────────────────────────────────────┼─────────────┼─────────┼─────────┼─────────┼─────────┤
│ _id                                       │ VARCHAR     │ YES     │         │         │         │
│ other_nutritional_substances_prev_tags    │ VARCHAR[]   │ YES     │         │         │         │
│ last_edit_dates_tags                      │ VARCHAR[]   │ YES     │         │         │         │
│ last_editor                               │ VARCHAR     │ YES     │         │         │         │
│ nova_group_debug                          │ VARCHAR     │ YES     │         │         │         │
│ ingredients_text                          │ VARCHAR     │ YES     │         │         │         │
│ traces_from_ingredients                   │ VARCHAR     │ YES     │         │         │         │
│ editors_tags                              │ VARCHAR[]   │ YES     │         │         │         │
│ informers_tags                            │ VARCHAR[]   │ YES     │         │         │         │
│ pnns_groups_1_tags                        │ VARCHAR[]   │ YES     │         │         │         │
│ additives_debug_tags                      │ VARCHAR[]   │ YES     │         │         │         │
│ nutriscore_grade                          │ VARCHAR     │ YES     │         │         │         │
│ packagings_materials                      │ JSON        │ YES     │         │         │         │
│ nutrition_data_per                        │ VARCHAR     │ YES     │         │         │         │
│ packaging_recycling_tags                  │ VARCHAR[]   │ YES     │         │         │         │
│ data_quality_info_tags                    │ VARCHAR[]   │ YES     │         │         │         │
│ traces_hierarchy                          │ VARCHAR[]   │ YES     │         │         │         │
│ states_hierarchy                          │ VARCHAR[]   │ YES     │         │         │         │
│ additives_original_tags                   │ VARCHAR[]   │ YES     │         │         │         │
│ minerals_prev_tags                        │ VARCHAR[]   │ YES     │         │         │         │
│         ·                                 │    ·        │  ·      │    ·    │    ·    │    ·    │
│         ·                                 │    ·        │  ·      │    ·    │    ·    │    ·    │
│         ·                                 │    ·        │  ·      │    ·    │    ·    │    ·    │
│ ingredients_text_en_ocr_1580151419_result │ VARCHAR     │ YES     │         │         │         │
│ ingredients_text_en_ocr_1580151419        │ VARCHAR     │ YES     │         │         │         │
│ ingredients_text_en_ocr_1544855786_result │ VARCHAR     │ YES     │         │         │         │
│ ingredients_text_en_ocr_1544855786        │ VARCHAR     │ YES     │         │         │         │
│ ingredients_text_en_ocr_1562578542        │ VARCHAR     │ YES     │         │         │         │
│ ingredients_text_en_ocr_1562578542_result │ VARCHAR     │ YES     │         │         │         │
│ ingredients_text_en_ocr_1563189139_result │ VARCHAR     │ YES     │         │         │         │
│ ingredients_text_en_ocr_1563189139        │ VARCHAR     │ YES     │         │         │         │
│ ingredients_text_en_ocr_1547074706_result │ VARCHAR     │ YES     │         │         │         │
│ ingredients_text_en_ocr_1547074706        │ VARCHAR     │ YES     │         │         │         │
│ ingredients_text_en_ocr_1562841907_result │ VARCHAR     │ YES     │         │         │         │
│ ingredients_text_en_ocr_1562841907        │ VARCHAR     │ YES     │         │         │         │
│ ingredients_text_en_ocr_1653660842_result │ VARCHAR     │ YES     │         │         │         │
│ ingredients_text_en_ocr_1653660842        │ VARCHAR     │ YES     │         │         │         │
│ ingredients_text_en_ocr_1582747034_result │ VARCHAR     │ YES     │         │         │         │
│ ingredients_text_en_ocr_1582747034        │ VARCHAR     │ YES     │         │         │         │
│ ingredients_text_en_ocr_1563072801        │ VARCHAR     │ YES     │         │         │         │
│ ingredients_text_en_ocr_1563072801_result │ VARCHAR     │ YES     │         │         │         │
│ ingredients_text_en_ocr_1562124853_result │ VARCHAR     │ YES     │         │         │         │
│ ingredients_text_en_ocr_1562124853        │ VARCHAR     │ YES     │         │         │         │
├───────────────────────────────────────────┴─────────────┴─────────┴─────────┴─────────┴─────────┤
│ 1031 rows (40 shown)                                                                  6 columns │
└─────────────────────────────────────────────────────────────────────────────────────────────────┘
…
Let's say we want to retrieve all products containing "cheese". A method would be to use the [pattern matching](https://duckdb.org/docs/sql/functions/pattern_matching) feature from DuckDB and perform a search in the `ingredients_text` column.

```sql
.maxrows 10
FROM products
WHERE ingredients_text ILIKE '%cheese%'; -- `%` matches any sequence of zero or more characters - ILIKE is case insensitive - LIKE for case sensitive search
```

```
┌───────────────┬──────────────────────┬────────────────────────────────────────────────────────────────────────────────────────────────────────────────┬─────────┐
│     code      │     product_name     │                                                ingredients_text                                                │  lang   │
│    varchar    │       varchar        │                                                    varchar                                                     │ varchar │
├───────────────┼──────────────────────┼────────────────────────────────────────────────────────────────────────────────────────────────────────────────┼─────────┤
│ 0000000018340 │ Fire Roasted Hatch…  │ Dry roasted almonds, hatch green chile seasoning (organic cheddar cheese powder [organic cheddar cheese {cul…  │ en      │
│ 0000000032117 │ Tricolor Tortellini  │ Egg pasta (refined durum semolina wheat flour, pasteurized eggs, dehydrated tomato and spinach), filling (gr…  │ en      │
│ 0000020043070 │ Biscuit              │ Enriched wheat flour (niacin, reduced iron, thiamin mononitrate, riboflavin, folic acid, malted barley flour…  │ en      │
│ 0000020043087 │ Biscuit              │ Enriched wheat flour (niacin, reduced iron, thiamin mononitrate, riboflavin, folic acid, malted barley flour…  │ en      │
│ 0000168175589 │ Mcvitie's, digesti…  │ Fortified wheat flour (with calcium, iron, niacin, thiamin), vegetable oil (palm), sugar, wholemeal wheat fl…  │ en      │
│    ·          │          ·           │                                                       ·                                                        │ ·       │
│    ·          │          ·           │                                                       ·                                                        │ ·       │
│    ·          │          ·           │                                                       ·                                                        │ ·       │
│ 29397297      │ M&S Chicken Caesar…  │ full fat soft cheese (milk) rapeseed oil water parmigiano reggiano cheese , , (milk) chicken breast (4,5%) (…  │ en      │
│ 9414323991982 │ Beef Lasagne         │ Meat Sauce (58%) [Tomato Purée (34%), Beef (19%), Onion (2.3%), Maize Thickener (1422), Brown Sugar, Salt, H…  │ en      │
│ 01154047      │ Sweet Maui rings     │ yellow corn flour, white rice flour, vegetable oil (contains one or more of the following: corn oil, sunflow…  │ en      │
│ 0005050215800 │ Garlic mushroom, m…  │ Fortified Wheat Flour (Wheat Flour, Calcium Carbonate, Iron, Niacin, Thiamin), Water, Mozzarella Cheese (Cow…  │ en      │
│ 5208046258194 │                      │ Egg pasta 72% (durum wheat semolina, egg 19.4%), filling 28% [breadcrumbs (soft wheat flour, water, yeast, s…  │ en      │
├───────────────┴──────────────────────┴────────────────────────────────────────────────────────────────────────────────────────────────────────────────┴─────────┤
│ 38483 rows (10 shown)                                                                                                                                 4 columns │
└─────────────────────────────────────────────────────────────────────────────────────────────────────────────────────────────────────────────────────────────────┘
…
